[
  {
    "definitions_word_en": "carry the weight of; support.",
    "id_lesson": "bear_b",
    "definitions_ex_en": "",
    "definitions_ex_vn": "",
    "definitions_type_word": "verb"
  },
  {
    "definitions_word_en": "endure (an ordeal or difficulty).",
    "id_lesson": "bear_b",
    "definitions_ex_en": "she bore the pain stoically",
    "definitions_ex_vn": "Cô ấy chán nản",
    "definitions_type_word": "verb"
  },
  {
    "definitions_word_en": "(of a person) carry (someone or something).",
    "id_lesson": "bear_b",
    "definitions_ex_en": "he was bearing a tray of brimming glasses",
    "definitions_ex_vn": "Anh ta đang mang một khay kính tràn đầy",
    "definitions_type_word": "verb"
  },
  {
    "definitions_word_en": "give birth to (a child).",
    "id_lesson": "bear_b",
    "definitions_ex_en": "she bore six daughters",
    "definitions_ex_vn": "cô ấy mang sáu con gái",
    "definitions_type_word": "verb"
  },
  {
    "definitions_word_en": "turn and proceed in a specified direction.",
    "id_lesson": "bear_b",
    "definitions_ex_en": "bear left and follow the old road",
    "definitions_ex_vn": "Gấu trái và theo con đường cũ",
    "definitions_type_word": "verb"
  },
  {
    "definitions_word_en": "a large, heavy mammal that walks on the soles of its feet, having thick fur and a very short tail. Bears are related to the dog family but most species are omnivorous.",
    "id_lesson": "bear_b",
    "definitions_ex_en": "",
    "definitions_ex_vn": "",
    "definitions_type_word": "noun"
  },
  {
    "definitions_word_en": "a large, heavy, cumbersome man.",
    "id_lesson": "bear_b",
    "definitions_ex_en": "a lumbering bear of a man",
    "definitions_ex_vn": "Một con gấu đang lén lút của một người đàn ông",
    "definitions_type_word": "noun"
  },
  {
    "definitions_word_en": "a person who forecasts that prices of stocks or commodities will fall, especially a person who sells shares hoping to buy them back later at a lower price.",
    "id_lesson": "bear_b",
    "definitions_ex_en": "bear markets",
    "definitions_ex_vn": "Chợ gấu",
    "definitions_type_word": "noun"
  }
]