[
  {
    "definitions_word_en": "any of the pieces of hard whitish tissue making up the skeleton in humans and other vertebrates.",
    "id_lesson": "bone_b",
    "definitions_ex_en": "his injuries included many broken bones",
    "definitions_ex_vn": "Chấn thương của anh ấy bao gồm nhiều xương gãy",
    "definitions_type_word": "noun"
  },
  {
    "definitions_word_en": "the calcified material of which bones consist.",
    "id_lesson": "bone_b",
    "definitions_ex_en": "an earring of bone",
    "definitions_ex_vn": "một bông tai xương",
    "definitions_type_word": "noun"
  },
  {
    "definitions_word_en": "the basic or essential framework of something.",
    "id_lesson": "bone_b",
    "definitions_ex_en": "you need to put some flesh on the bones of your idea",
    "definitions_ex_vn": "Bạn cần phải đặt một ít thịt vào xương của ý tưởng của bạn",
    "definitions_type_word": "noun"
  },
  {
    "definitions_word_en": "remove the bones from (meat or fish).",
    "id_lesson": "bone_b",
    "definitions_ex_en": "while the gumbo is simmering, bone the cooked chicken",
    "definitions_ex_vn": "Trong khi Gumbo đang sôi, xương gà nấu chín",
    "definitions_type_word": "verb"
  },
  {
    "definitions_word_en": "study (a subject) intensively, typically in preparation for something.",
    "id_lesson": "bone_b",
    "definitions_ex_en": "",
    "definitions_ex_vn": "",
    "definitions_type_word": "verb"
  }
]