[
  {
    "definitions_word_en": "(of an item for sale) low in price; worth more than its cost.",
    "id_lesson": "cheap_c",
    "definitions_ex_en": "they bought some cheap fruit",
    "definitions_ex_vn": "Họ đã mua một số trái cây giá rẻ",
    "definitions_type_word": "adjective"
  },
  {
    "definitions_word_en": "at or for a low price.",
    "id_lesson": "cheap_c",
    "definitions_ex_en": "a house that was going cheap",
    "definitions_ex_vn": "một ngôi nhà đã đi giá rẻ",
    "definitions_type_word": "adverb"
  }
]