[
  {
    "definitions_word_en": "keep safe from harm or injury.",
    "id_lesson": "protect_p",
    "definitions_ex_en": "he tried to protect Kelly from the attack",
    "definitions_ex_vn": "Anh cố gắng bảo vệ Kelly khỏi cuộc tấn công",
    "definitions_type_word": "verb"
  }
]